 ____________________
| .__________________|
| | / /      .-''.
| |/ /      /  _  \
| | /       |  `/,|
| |/         \`_.'
| |         .-`--'.
| |        /Y . . Y\
| |       // |   | \\
| |      //  | . |  \\
| |     ')   |   |   (`
| |          ||'||
| |          || ||
| |          || ||
| |          || ||
| |         / | | \
| |         `-' `-'
| |        __ __ ___
""""""""""|__ __ ___|"""|
|"|"""""""          '"|"|
| |                   | |
: :                   : :
. .                   . .

